{
	"version": 1,
	"allow_edit": true,
	"plugins": [],
	"panes": [
		{
			"title": "Studio 1 - ID10",
			"width": 1,
			"row": {
				"3": 1,
				"4": 9,
				"5": 9
			},
			"col": {
				"3": 1,
				"4": 1,
				"5": 2
			},
			"col_width": 2,
			"widgets": [
				{
					"type": "text_widget",
					"settings": {
						"size": "regular",
						"value": "datasources[\"Resource Availability\"][\"resources\"][0][10][\"resource\"][\"name\"]",
						"animate": true
					}
				},
				{
					"type": "indicator",
					"settings": {
						"value": "if(datasources[\"Resource Availability\"][\"resources\"][0][10][\"available\"] === false){\n    return 1;\n}else{\n    \n    return 0;\n}",
						"on_text": "var timetill = moment(datasources[\"Resource Availability\"][\"resources\"][0][10][\"availableAt\"]).format('HH:mm');\n\nreturn \"In use until: \" + timetill;\n\n",
						"off_text": "var resourceAvailableUntil = datasources[\"Resource Availability\"][\"resources\"][0][10][\"availableUntil\"]\n\nvar timetill = moment(resourceAvailableUntil).format('HH:mm');\n\nvar istoday = moment(resourceAvailableUntil).isSame(moment(), 'day');\n\nif(istoday){\n\nreturn \"Free until: \" + timetill;\n    \n}\nelse{\n    \n    return \"FREE ALL DAY\"\n}"
					}
				}
			]
		},
		{
			"title": "Studio Time",
			"width": 1,
			"row": {
				"4": 1,
				"5": 1
			},
			"col": {
				"4": 1,
				"5": 1
			},
			"col_width": "2",
			"widgets": [
				{
					"type": "text_widget",
					"settings": {
						"size": "big",
						"value": "moment(datasources[\"StudioTime\"][\"numeric_value\"][\"time_string_value\"]).format(\"HH:mm:ss\")",
						"animate": true
					}
				},
				{
					"type": "text_widget",
					"settings": {
						"size": "regular",
						"value": "moment(datasources[\"StudioTime\"][\"date_object\"]).format('ddd Do MMM YYYY');",
						"animate": true
					}
				}
			]
		},
		{
			"title": "Studio 3 - ID 12",
			"width": 1,
			"row": {
				"3": 7,
				"4": 15,
				"5": 15,
				"6": 11
			},
			"col": {
				"3": 1,
				"4": 1,
				"5": 2,
				"6": 3
			},
			"col_width": 2,
			"widgets": [
				{
					"type": "text_widget",
					"settings": {
						"size": "regular",
						"value": "datasources[\"Resource Availability\"][\"resources\"][0][12][\"resource\"][\"name\"]",
						"animate": true
					}
				},
				{
					"type": "indicator",
					"settings": {
						"value": "if(datasources[\"Resource Availability\"][\"resources\"][0][12][\"available\"]===false){\n    return 1;\n}else{\n    \n    return 0;\n}",
						"on_text": "var timetill = moment(datasources[\"Resource Availability\"][\"resources\"][0][12][\"availableAt\"]).format('HH:mm');\n\nreturn \"In use until: \" + timetill;\n\n",
						"off_text": "var resourceAvailableUntil = datasources[\"Resource Availability\"][\"resources\"][0][12][\"availableUntil\"]\n\nvar timetill = moment(resourceAvailableUntil).format('HH:mm');\n\nvar istoday = moment(resourceAvailableUntil).isSame(moment(), 'day');\n\nif(istoday){\n\nreturn \"Free until: \" + timetill;\n    \n}\nelse{\n    \n    return \"FREE ALL DAY\"\n}"
					}
				}
			]
		},
		{
			"title": "Studio 2 - ID 11",
			"width": 1,
			"row": {
				"3": 13,
				"4": 9,
				"5": 9,
				"6": 1,
				"8": 1
			},
			"col": {
				"3": 1,
				"4": 3,
				"5": 4,
				"6": 3,
				"8": 3
			},
			"col_width": 2,
			"widgets": [
				{
					"type": "text_widget",
					"settings": {
						"size": "regular",
						"value": "datasources[\"Resource Availability\"][\"resources\"][0][11][\"resource\"][\"name\"]",
						"animate": true
					}
				},
				{
					"type": "indicator",
					"settings": {
						"value": "if(datasources[\"Resource Availability\"][\"resources\"][0][11][\"available\"]===false){\n    \n    return 1;\n}else{\n       return 0;\n   }",
						"on_text": "var timetill = moment(datasources[\"Resource Availability\"][\"resources\"][0][11][\"availableAt\"]).format('HH:mm');\n\nreturn \"In use until: \" + timetill;\n\n",
						"off_text": "var resourceAvailableUntil = datasources[\"Resource Availability\"][\"resources\"][0][11][\"availableUntil\"]\n\nvar timetill = moment(resourceAvailableUntil).format('HH:mm');\n\nvar istoday = moment(resourceAvailableUntil).isSame(moment(), 'day');\n\nif(istoday){\n\nreturn \"Free until: \" + timetill;\n    \n}\nelse{\n    \n    return \"FREE ALL DAY\"\n}"
					}
				}
			]
		},
		{
			"title": "Studio 4 - ID 13",
			"width": 1,
			"row": {
				"3": 19,
				"4": 15,
				"5": 15,
				"6": 11,
				"7": 11
			},
			"col": {
				"3": 1,
				"4": 3,
				"5": 4,
				"6": 1,
				"7": 1
			},
			"col_width": 2,
			"widgets": [
				{
					"type": "text_widget",
					"settings": {
						"size": "regular",
						"value": "datasources[\"Resource Availability\"][\"resources\"][0][13][\"resource\"][\"name\"]",
						"animate": true
					}
				},
				{
					"type": "indicator",
					"settings": {
						"value": "if(datasources[\"Resource Availability\"][\"resources\"][0][13][\"available\"]===false){\n    return 1;\n}else{\n    \n    return 0;\n}",
						"on_text": "var timetill = moment(datasources[\"Resource Availability\"][\"resources\"][0][13][\"availableAt\"]).format('HH:mm');\n\nreturn \"In use until: \" + timetill;\n\n",
						"off_text": "var resourceAvailableUntil = datasources[\"Resource Availability\"][\"resources\"][0][13][\"availableUntil\"]\n\nvar timetill = moment(resourceAvailableUntil).format('HH:mm');\n\nvar istoday = moment(resourceAvailableUntil).isSame(moment(), 'day');\n\nif(istoday){\n\nreturn \"Free until: \" + timetill;\n    \n}\nelse{\n    \n    return \"FREE ALL DAY\"\n}"
					}
				}
			]
		},
		{
			"title": "Studio 5b - ID 16",
			"width": 1,
			"row": {
				"3": 25,
				"4": 21,
				"5": 21,
				"8": 7
			},
			"col": {
				"3": 1,
				"4": 3,
				"5": 4,
				"8": 1
			},
			"col_width": 2,
			"widgets": [
				{
					"type": "text_widget",
					"settings": {
						"size": "regular",
						"value": "datasources[\"Resource Availability\"][\"resources\"][0][16][\"resource\"][\"name\"]",
						"animate": true
					}
				},
				{
					"type": "indicator",
					"settings": {
						"value": "if(datasources[\"Resource Availability\"][\"resources\"][0][16][\"available\"]===false){\n    return 1;\n}else{\n    \n    return 0;\n}",
						"on_text": "var timetill = moment(datasources[\"Resource Availability\"][\"resources\"][0][16][\"availableAt\"]).format('HH:mm');\nreturn \"In use until: \" + timetill;\n\n",
						"off_text": "var resourceAvailableUntil = datasources[\"Resource Availability\"][\"resources\"][0][16][\"availableUntil\"]\n\nvar timetill = moment(resourceAvailableUntil).format('HH:mm');\n\nvar istoday = moment(resourceAvailableUntil).isSame(moment(), 'day');\n\nif(istoday){\n\nreturn \"Free until: \" + timetill;\n    \n}\nelse{\n    \n    return \"FREE ALL DAY\"\n}"
					}
				}
			]
		},
		{
			"width": 1,
			"row": {
				"4": 27,
				"5": 27,
				"9": 27
			},
			"col": {
				"4": 3,
				"5": 4,
				"9": 3
			},
			"col_width": "2",
			"widgets": [
				{
					"type": "text_widget",
					"settings": {
						"size": "regular",
						"value": "datasources[\"Resource Availability\"][\"resources\"][0][17][\"resource\"][\"name\"]",
						"animate": true
					}
				},
				{
					"type": "indicator",
					"settings": {
						"value": "if(datasources[\"Resource Availability\"][\"resources\"][0][17][\"available\"]===false){\n    return 1;\n}else{\n    \n    return 0;\n}",
						"on_text": "var timetill = moment(datasources[\"Resource Availability\"][\"resources\"][0][12][\"availableAt\"]).format('HH:mm, ddd Do MMM YYYY');\n\nreturn \"In use until: \" + timetill;\n\n",
						"off_text": "var resourceAvailableUntil = datasources[\"Resource Availability\"][\"resources\"][0][17][\"availableUntil\"]\n\nvar timetill = moment(resourceAvailableUntil).format('HH:mm');\n\nvar istoday = moment(resourceAvailableUntil).isSame(moment(), 'day');\n\nif(istoday){\n\nreturn \"Free until: \" + timetill;\n    \n}\nelse{\n    \n    return \"FREE ALL DAY\"\n}"
					}
				}
			]
		},
		{
			"title": "Studio 5 Live - ID 14",
			"width": 1,
			"row": {
				"3": 31,
				"4": 21,
				"5": 21,
				"7": 13,
				"9": 13,
				"10": 13
			},
			"col": {
				"3": 1,
				"4": 1,
				"5": 2,
				"7": 1,
				"9": 1,
				"10": 1
			},
			"col_width": 2,
			"widgets": [
				{
					"type": "text_widget",
					"settings": {
						"size": "regular",
						"value": "datasources[\"Resource Availability\"][\"resources\"][0][14][\"resource\"][\"name\"]",
						"animate": true
					}
				},
				{
					"type": "indicator",
					"settings": {
						"value": "if(datasources[\"Resource Availability\"][\"resources\"][0][14][\"available\"]===false){\n    return 1;\n}else{\n    \n    return 0;\n}",
						"on_text": "var timetill = moment(datasources[\"Resource Availability\"][\"resources\"][0][14][\"availableAt\"]).format('HH:mm');\n\nreturn \"In use until: \" + timetill;\n\n",
						"off_text": "var resourceAvailableUntil = datasources[\"Resource Availability\"][\"resources\"][0][14][\"availableUntil\"]\n\nvar timetill = moment(resourceAvailableUntil).format('HH:mm');\n\nvar istoday = moment(resourceAvailableUntil).isSame(moment(), 'day');\n\nif(istoday){\n\nreturn \"Free until: \" + timetill;\n    \n}\nelse{\n    \n    return \"FREE ALL DAY\"\n}"
					}
				}
			]
		},
		{
			"title": "AV LAB - ID18",
			"width": 1,
			"row": {
				"4": 33,
				"5": 33,
				"11": 33
			},
			"col": {
				"4": 1,
				"5": 2,
				"11": 1
			},
			"col_width": "4",
			"widgets": [
				{
					"type": "text_widget",
					"settings": {
						"size": "regular",
						"value": "datasources[\"Resource Availability\"][\"resources\"][0][18][\"resource\"][\"name\"]",
						"animate": true
					}
				},
				{
					"type": "indicator",
					"settings": {
						"value": "if(datasources[\"Resource Availability\"][\"resources\"][0][18][\"available\"] === false){\n    return 1;\n}else{\n    \n    return 0;\n}",
						"on_text": "var timetill = moment(datasources[\"Resource Availability\"][\"resources\"][0][18][\"availableAt\"]).format('HH:mm');\n\nreturn \"In use until: \" + timetill;\n\n",
						"off_text": "var resourceAvailableUntil = datasources[\"Resource Availability\"][\"resources\"][0][18][\"availableUntil\"]\n\nvar timetill = moment(resourceAvailableUntil).format('HH:mm');\n\nvar istoday = moment(resourceAvailableUntil).isSame(moment(), 'day');\n\nif(istoday){\n\nreturn \"Free until: \" + timetill;\n    \n}\nelse{\n    \n    return \"FREE ALL DAY\"\n}"
					}
				}
			]
		},
		{
			"title": "Live Room - ID 15",
			"width": 1,
			"row": {
				"3": 37,
				"4": 27,
				"5": 27,
				"10": 19,
				"11": 19,
				"14": 19
			},
			"col": {
				"3": 1,
				"4": 1,
				"5": 2,
				"10": 1,
				"11": 1,
				"14": 1
			},
			"col_width": "2",
			"widgets": [
				{
					"type": "text_widget",
					"settings": {
						"size": "regular",
						"value": "datasources[\"Resource Availability\"][\"resources\"][0][15][\"resource\"][\"name\"]",
						"animate": true
					}
				},
				{
					"type": "indicator",
					"settings": {
						"value": "if(datasources[\"Resource Availability\"][\"resources\"][0][15][\"available\"]===false){\n    return 1;\n}else{\n    \n    return 0;\n}",
						"on_text": "var timetill = moment(datasources[\"Resource Availability\"][\"resources\"][0][15][\"availableAt\"]).format('HH:mm');\n\nreturn \"In use until: \" + timetill;\n\n",
						"off_text": "var resourceAvailableUntil = datasources[\"Resource Availability\"][\"resources\"][0][15][\"availableUntil\"]\n\nvar timetill = moment(resourceAvailableUntil).format('HH:mm');\n\nvar istoday = moment(resourceAvailableUntil).isSame(moment(), 'day');\n\nif(istoday){\n\nreturn \"Free until: \" + timetill;\n    \n}\nelse{\n    \n    return \"FREE ALL DAY\"\n}"
					}
				}
			]
		},
		{
			"width": 1,
			"row": {
				"3": 43,
				"4": 1,
				"5": 1,
				"9": 19,
				"11": 19,
				"12": 19,
				"15": 19
			},
			"col": {
				"3": 1,
				"4": 3,
				"5": 4,
				"9": 1,
				"11": 1,
				"12": 1,
				"15": 1
			},
			"col_width": "2",
			"widgets": [
				{
					"type": "gauge",
					"settings": {
						"value": " var in_use = 7 - ( datasources[\"Resource Availability\"][\"resources\"][0][10][\"available\"] +\n datasources[\"Resource Availability\"][\"resources\"][0][11][\"available\"] +\n datasources[\"Resource Availability\"][\"resources\"][0][12][\"available\"] + \n datasources[\"Resource Availability\"][\"resources\"][0][13][\"available\"] + \n datasources[\"Resource Availability\"][\"resources\"][0][14][\"available\"] + \n datasources[\"Resource Availability\"][\"resources\"][0][16][\"available\"] + \n datasources[\"Resource Availability\"][\"resources\"][0][17][\"available\"]);\nreturn in_use;",
						"units": "studios in use",
						"min_value": 0,
						"max_value": "7"
					}
				}
			]
		}
	],
	"datasources": [
		{
			"name": "Resource Availability",
			"type": "JSON",
			"settings": {
				"url": "https://cam-s-od01.anglia.local:8443/Web/Services/Resources/Availability",
				"use_thingproxy": false,
				"refresh": 10,
				"method": "GET",
				"body": "",
				"headers": [
					{
						"name": "X-Booked-UserId",
						"value": "2"
					},
					{
						"name": "X-Booked-SessionToken",
						"value": "57f9149a16890"
					}
				],
				"name": "Resource Availability"
			}
		},
		{
			"name": "StudioTime",
			"type": "clock",
			"settings": {
				"refresh": 1
			}
		}
	],
	"columns": 4
}
